vago,hiperactivo,vago,divertido,fantasma,callado,creativo,inocente,hiperactivo,indiferente,orgullosa,divertida,tonta,mandona,creativa,bajoneada,rara,indiferente,indiferente,presumida,cheta,boludo,liberado,cartelero,creativa,relajada,orgullosa,bardero,cheta,fuerte,copado,histérica,copada,copado,copado ,activo,indiferente,activa,presente,relajado,copada,copada,activa,sociable,rencorosa,copado,copada,activo,activo,idiferente,cheto,activo,copado,presente,divertida,divertida,mahumorado,indiferente,activa
,,,,,,,,,,,,,,,,,,,,,,,,,,,,,,,,,,,,,,,,,,,,,,,,,,,,,,,,,,
,,,,,,,,,,,,,,,,,,,,,,,,,,,,,,,,,,,,,,,,,,,,,,,,,,,,,,,,,,
"sin ""0""",activo,sumiso,tímido,Frank Zappa,Amigo,Crack,Amigo,Crack,Negro,Sensible,Amiga,amiga,Mandona,Amiga,Amiga,Amiga,Amiga,Amiga,Amiga,Amiga,Amigo,crack,Amigo,Crack,-,-,-,Dispuesta,crack,no sé,idola,dispuesta,-,-,Crack,-,Crack,Amiga,Amigo,-,Crack,Amiga,-,Profe,-,-,Idolo,Crack,,Maquina,crack,-,Extrovertido,Genia,-,Dispuesto,-,Crack
Alejado,hiperactivo,bueno,"""violento""",tract br,tímido,creativo,unico,infantil,respondable,divertida,tranquila,estupida,estupida,alegre,cerrada,abierta,copada,tranquila,idiota,hueca,alterado,responsable,copado,copada,tranquila,copada,tonto,coformista,distinta,influenciable,ingenua,cerrada,tranquilo,machista,creido,tranquilo,divertida,original,pensador,copada,hueca,hueca,tranquila ,buena,tímido,copada,copado,pelotudo,piola,creido,bueno,bobo,creativo,entretendida,copada,mandon,tonto,copada
,,,,,,,,,,,,,,,,,,,,,,,,,,,,,,,,,,,,,,,,,,,,,,,,,,,,,,,,,,
enojon,timido,introvertido,curioso, orginal,introvertido,positivo,divertido,hiperactivo,organizado,tranquila,espontanea,callado,mandona,alegre,no demostrativa,organizada,creida,mandona,creida,enojona,sordo,positivo,divertido,original,tranquila,bipolar,serio,repetitiva,interesante,tranquilo,charlatana,mandona,gracioso,sobrado,impaciente,prejuicioso,divertida,segura,creativo,divertida,pensadora,tranquila,introvertida,impaciente,introvertido,gritona,,timido,copado,creido,copado,serio,creativo,mandona,divertida,gracioso,creido,lindos lentes
,,,,,,,,,,,,,,,,,,,,,,,,,,,,,,,,,,,,,,,,,,,,,,,,,,,,,,,,,,
bien,muy bien,mas o menos,bien,alto compa,peola ,peola,peola,bien,bien,bien, muy bien,mas o menos,mal,bien,mejor,peola,copada,bien,good,bien,mas o menos,copado,mas o menos,es pila,crak,ni bien ni mal,compa,meehh,increible,crack,peola,bien,fntasma,fantasma,bobo,fantasma,buenas charlas,buenas charlas,crack,fantasma,buena instructora, crack,fantasma,profesora,tímido,copada,copado,tonto,fantasma,serio,accesible,buen instructor,un genio,loca,buena,mandon,crack, ni idea
,activo,vago,distraifo,inteligente,timido,creativo/musico,futbolero,activo,responsable,divertida,pensadora,le da todo lo mismo,mandona,activa,bipolar,inteligente,participativa,inteligente,me da igual,fantasma/graciosa,distraido,creido,creativo,creativa/hiperactiva,vaga,activa,propuesto,cargosa,creativa,responsable,graciosa,distraida,careta,irresponsable,falso,copado,propuesta,copada,comprometido,buena onda,comprometida,propuesta,buena onda,copada,comprometido,entusiasta,careta,responsable,comprometido,comprometido,copado,buena onda,entusiasta,buena onda,responsable,introvertido,careta,propuesta
tierno,activo,gamer,tranquilo,solitario,callado,extrovertido,simpático,pesado,participativo,garca,quejosa ,intensa,mandona,copada,mala,cerrada,participativa,buena,molesta,gritona,callado,quiere aparentar,callado,activa,insegura,falsa,bobo,necesita atención,atractiva,aburrido,hiperactiva,necesita atencion,diva,jodon,creído,amoroso,graciosa,insegura,egoista,neutra,hipócrita,copadisima,aburrida,cariñosa,callado,tonta,inútil,bobo,insistente,egoista,vacío,colgado,extrovertido,suceptible,copada,molesto,gracioso,tonta
Indeciso/perdido,Energetico,copado pero callado,no se,complicado,fantasma,necesita demostrar que es creativo,nada,energetico,respetuoso,atenta,quejosa/confundida,copada pero vacia,inquetamente mandona,vacia,un poco menos vacia,perdida,escucha,respondable,"vacía, quiere atención",fantasma,vacio,egoista,vacio,responsable,copada,vacia,vacio,necesita atención,comprometida,copado,falsa,careta,copado,copado,copado,copado,copada,vacia,vacio,vacia,jjhdsbf,copada,copada,copada,copado,copada,copado,tonto,creido,creido,copado,copado,comprometido,copada,falsa,copado,copado,vacia
copado,poco serio,callado,buenaonda,copado,introvertido,gracioso,buena onda,gracioso,copado,sincera,extrovertida,vergonzosa,mandona,extrovertida,sincera,reflexiva,graciosa,vergonzosa,aactiva,fantasma,callado,sincero,callado,participativa,participativa,-,buena onda,hiperactia,participativa,copado,carioñosa,-,copado,introvertido,activo,participativo,buena onda, participativa,cerrado,-,activa,graciosa,cerrada,buena onda,árticipativo,extrovertida,buena onda,callado,participativo,activo,activo,buena onda,extrovertido,copada,responsable,participativo,buena onda,fantasma
,hiperactivo,calmado,relajado,egoista,calmado,atento,apasionado,creativo,agresivo,sociable,efectiva,quejosa,mandona,agil,despistada,inteligente,activa,empática ,emocional,ausente,entretenido,desinteresado,callado,comprometida,responsable,carismática,copado,preocupada,ágil,,incomprendible,lista,amistoso,chismoso,reservado,divertido,egocentrica,seria,copado,empática,comprometida,lista,franca,desatenta,desconfiado,atenta,abierto,cerrado,careta,interesado,gracioso,copado,divertido,entretenida,careta,copado,inteligente,distante
careta/confiable,energico,interesante,copado,introvertido,cerrado,agradable,incomunicado,insoportable,simpático,directa,caprichosa,molesta,mandona,irritante,bella,confiable,confiada,irritable,cartel/molesta,irresponsable,inseguridad,pedofilia,turbio,participativa,insegura,hipocrita,timido,sin pensamiento propio,inteligente,simpático,fiestera,cartel,amigable,resentido,egocentrico,gracioso,fantasma,decidida,juzgador,ortiva,inteligente,copada,buena onda,deporte,carli,tonta,irritante,frio,cartel,vacío,fantasma,indeciso,alegre,inutil,estudiosa,intenso,careta,ausente
garca,hiperactivo,callado,influenciable,introvertido,timido,buena persona,,hiperactivo,distraido,falsa,egoista,intensa,mal humor,sensible,cerrada,consejera,hiperactiva,compañera,gede,distraida,cerrado,agrandado,hiperactivo,sencilla,cerrada,garca,callado,tarada,copada,callado,turbia,falsa,interesante,turbio,superficial,extraño,copada,divertida,interesante,caraculica,simple,divertida,interesante,mandona,timido,divertida,extraño,copado,influenciable,vacio,superficial,superficial,participativo,copada,superficial,,superficial,buena persona
capaz,inmaduramente gracioso,constructivo,cooperativo,flashero,no conozco,inesperado,infantil,entusiasta,constante,decidida,Divertida,intensa,temperamental,atormentada/ alegre,auténtica,,confiable,predispuesta,despistada,milenial,amigable,inteligente,desenvuelto,activa,mística,prepotente,callado/de oro,sensible,inovadora,empático,predispuesta,cariñosa,abierto,relajado,independiente,inocente,práctico,abierta,relajado,volada,autentica,responsable,no conozco,dialoga,tímido,emprendedora,desenvuelto,no conozco,relajado,amigable,crack,no conozco,creativo,alegre,directa,sincero,superficial,desconocida
Copado,Energetico,Tímido,influenciable,interesante,callado,seguro,callado,iperactivo,copado,confidente,charlatana,impaciente,enojona,confiable,egocentrica,servicial,comoda,lider,quejosa,copada,imperativo/hiperactivo,complejo,problematico,participativa,copada,ausente,tímido,intensa,conformista,callado,conformista,aparenta,interesantte,chaamuyador,copado,irreponsable,confiable,contenta,callado,contenta,comprometida,copada,callada,predispuesta,timido,predispuesta,influenciable,influenciable,copado,irresponsable,interesante,conformista,comprometido,divertida,feliz,intenso/confidente,amistoso,ausente
gracioso,desatento,introvertido,colgado,gracioso,callado,responsable,tranquilo,alegre,comprensivo,tranquila,responsable,sensible,extremista,sociable,cariñosa,atenta,responsable,introvertida,colgada,alegre,amable,callado,introvertido,extrovertida,atenta,distraida,gracioso,alegre,atenta,tranquilo,comprensiva,sociable,introvertida,sociable,comprensivo,distraido,alegre,atenta,atento,alegre,tranquila,atenta,atenta,amable,atento,alegre,extrovertido,callado,colgado,distraido,atento,tranquilo,alegre,sociable,compañera,atento,comprensiva,amable
Serio,Hiperactivo(copado),sensible,sensible,enojon,fantasma,divertido,bueno,alegre,directo,directa,antipatica,egoista,sincera,muy directa y malumorahada,copada,buena,divertida,seria,dispersa,fantasma,copado,impaciente,copado,alegre,serena,copada,serio,exagerada,alegre,copado,divertida,alegre,alegre,sensible,directo,copado,divertida,buena onda,copado,buena,loca,predispuesta,copada,predispuesta,callado,sincera,copado,callado,copado,creido,gracioso,gracioso,genio,torpe,seria,copado,piola,copada
,,,,,,,,,,,,,,,,,,,,,,,,,,,,,,,,,,,,,,,,,,,,,,,,,,,,,,,,,,
,,,,,,,,,,,,,,,,,,,,,,,,,,,,,,,,,,,,,,,,,,,,,,,,,,,,,,,,,,
Random,ignorante,copado,activo,agobiado,colgado,normal,-,entusiasta,precavido,extrovertida,indecisa,apagada,pretenciosa,normal,normal,activa,copado,espectante,insoportable,normal,desenfocado,volatil,perdido,euforica,pretenciosa,normal,colgado,participativo,caarimática,ignorane,desubicada,calculadora,hirritable?,ignorante,neceita que sepan que está ahi,desenfocado,normal,extrovertida,ignorante,interesante,esquisofrenica,normal,desapercibida,mucho sentido de la responsabilidad,colgado,responsable,normal,ignorante,inteligente,predispuesto,responsable,colgado,impertinente,normal,activa,calculador,colgado,normal
,,,,,,,,,,,,,,,,,,,,,,,,,,,,,,,,,,,,,,,,,,,,,,,,,,,,,,,,,,
gede,holgazan,timido,simpatico,acido,frio,bobo,callado,infantil,simpatico,transparente,seria,chillona,dura,fria,falsa,allegre,simpatica,responsable,chillona,ausente,fantasma,creido,fatasma,exigente,amororosa,dependiente,simpatico,insoportable,super buena,relajado ,dramatica,caraculica,perfeccionista,callado, creido,hormoal,amigable,irresponsable,aburrido,querible,sensible,amorosa,ausente,mama,reservado,compañera,pretencioso,machista,simpatico,presumido,alegre,perdido,pretencioso,adorable,competitiva,asquerosa,perdido,fantasma
cuadrado,tonto,agresivo,reservado,pretencioso,tímido,pretencioso,tímido,comprometido,insoportable,ciclotimicaa,tierna,pesada,reservada,acida,seria,amorosa,simpatica,acida,pesada,pesada,fantasma,irracional,antipatico,simpatica,exigente,terca,aburrido,pesada,transparente,perdido,falsa,transparente,pretencioso,antipatico,cariñoso,hormonal,falsa,tranquila,inmaduro,agradable,sobrebia,amigable,simpatica,cariñosa ,tibio,obsecuente,falso,cuadrado,cariñoso,reservado,pesado,perdido,soberbio,querible,amorosa,acido,irresponsable,pesada
,,,,,,,,,,,,,,,,,,,,,,,,,,,,,,,,,,,,,,,,,,,,,,,,,,,,,,,,,,
,,,,,,,,,,,,,,,,,,,,,,,,,,,,,,,,,,,,,,,,,,,,,,,,,,,,,,,,,,
fantasma,amigable,introvertido,colgado,musico,vergonzoso,personaje (en el buen sentido),fantasma,contento muy,amigable,confidente,charlatana (en el buen sentido),timida,timida,imperactiva?,comprometida,imperactiva?,proactiva,inteligente,-,fantasma ,fantasma,lider,fantasma,mandona,artista,responsable,fantasma ,extrovertida,demasiado proactiva,sensible,falsa,irresponsable,cariñoso,fantasma,careta,irresponsable,irresponable,introvertida,desubicado,introvertida,caareta,atenta sociable,responsable,atenta proactiva,charlatan (en el buen sentido),estovertida,enojon,desubicado,influenciable,lider,participativo,colgado,responsable,introvertida,responsable,mandon,colgado,colgada
introvertido,distraido,disperso,,gracioso,fantasma,melomano,distraido,gracioso,copado,copada,alegre,distraida,seria,graciosa,callada,alegre,alegre,amable,infantil,ausente,irresponsable,amable,misterioso,apasionada,sincera,ocupada,ausente,careta,vaga,disparatado,despistada,engreida,correcto,distraido,gentil,egoista,gentil,introvertido,,simpatica,elocuente,simpatica,callada,responsable,timido,alegre,grosero,ausente,despreocupado,creativo,relajado,duro,creativo,distraida,alegre,responsable,amable,ausente
,,,,,,,,,,,,,,,,,,,,,,,,,,,,,,,,,,,,,,,,,,,,,,,,,,,,,,,,,,
Cómodo,simpático,callado,tímido,complejo,perfil bajo,creativo,tranquilo,alegre,buena onda,narcisista,tiernaa,insegura,introvertida,efusiva,cerrada,afectuasa,sociable,reservada, intensa,ausente,inmaduro,pensativo,marginado,comprometida,sensible,desconfiada,apatico,pesada, compañera,seervivial,extrovertida,irresponsable,juzgador,desubicado,intransigente,hormonal,sincera,estresada, soberbio,antipática,directa,amorosa,positiva,independiente,tímido,condesendiente,machista,retrogrado,comprometido,egocentrico,orgulloso,desconcentrado,animador,sentimental,realista,organizado,colgado,ocupada
,,,,,,,,,,,,,,,,,,,,,,,,,,,,,,,,,,,,,,,,,,,,,,,,,,,,,,,,,,
Gracioso,Simpático,raro,simple,inescrutable,tímimdo,Extrovertido,Introvertido,Payado,Sincero,Insegura,Copada,Comprometida,Autoritaria(a veces),Fuerte,Alegre,Alegre,Payasa,Conversadora,Tímida,Extrovertida,Difícil,Alegre,Turbio,Sencilla,Sincera,Sensible,Tímido,Intensa,Honesta,Tranquilo,Graciosa,Gritona,asistemático,Simpático,Confidente,Fiestero,Loca,Melosa,Odioso,Cálida,Multifacética,Tranquila,Sipática,Intensa,Introvertido,Confiable,Agradable,Callado,Tóxico,Carismático,Simple,colgado,Exuberante,Genia,Carismática,Fiel,Colgado,Copada
,,,,,,,,,,,,,,,,,,,,,,,,,,,,,,,,,,,,,,,,,,,,,,,,,,,,,,,,,,
copado,despistado,tranquilo,bueno,irrespetuoso,traqquilo,creativo pesado,bueno,inquieto bufon,copado,definida buena,ingeniosa buena,insegura,mandona,divertida,copada/malhumorada,malhumorada/buena,copada,buena,buena,copada/despistada,desinteresado,directo/ bueno,extraño,ingeniosa copada,directa muy buena,comprensiva/bipolar,copado/ callado,quiere llamar siempre la atención,creativa copada,ingenioso,copada,cariñosa,reservado bueno,confuso buen,copado/ amigable/ egocentrico (a veces),terco/bueno,copada,ingeniosa copada,juzga sin saber,buena copada,directa buena,copada insegura,tranquila,malhumorada/ copada,traquil/bueno,comprensiva/ estresada?,terco/bueno,confuso,comprensivo/jodon,ingenioso/copado,tranquilo,quilombero,creativo copado,copada,comprensiva,copado/mandon,bueno/inseguro,copada
,,,,,,,,,,,,,,,,,,,,,,,,,,,,,,,,,,,,,,,,,,,,,,,,,,,,,,,,,,
,,,,,,,,,,,,,,,,,,,,,,,,,,,,,,,,,,,,,,,,,,,,,,,,,,,,,,,,,,
superficial,bobo,perdido,neutro,reservado,descuidado,interesante,simpatico,extrovertido,aburrido,transparente,presumida,aburrida,simpatica,falsa,amorosa,compleja,ambiciosa,alegre,euforica,cerrada,molesto,acido,extrovertido,comprensiva,abstracta,prejuiciosa,serio,dramatica,comprometida,pacífico,empatica,fantasma,falso,tibio,falso,pajero,-,objetiva,tibio,tranquila,realista,histerica,transparente,amoosa,inocente,prejuiciosa,inmaduro,inmaduro,hormonal,medio narcisista,cariñoso,sereno,imaginativo,insoportable,seria,fiestero,pesado,sobrevalorada
,,,,,,,,,,,,,,,,,,,,,,,,,,,,,,,,,,,,,,,,,,,,,,,,,,,,,,,,,,
,,,,,,,,,,,,,,,,,,,,,,,,,,,,,,,,,,,,,,,,,,,,,,,,,,,,,,,,,,
malo,raro,raro,callado,callado,irresponsable,creido,perdido,copado,normal,divina,re cool,pesada,timida,tierna,callada,rara,copada,buena,pesada,creida,irresponsable,raro,turbio,divina,interesante,cálida,buenito,careta,interesante,-,intensa,forra,buchon,creido,comunicativo,divino,feminista,feminista,machista,divina,ortiva ,atenta,irresponsable,cariñosa,feminista,divina,machito asqueroso,tonto,bueno,irresponable, complicado,copado,interesante,buena,divina,gracioso,bueno,copada
energia,perdido,copado,fantasma,raro,fantasma,creativo,perdido,copadisimo,crack,no energética,genia,copada, mandona,copada,creida,comprometida,carismática,comprometida,intensa,fantasma,fantasma,no comprometido,perdodo,intelligente,liberal,copada,perdido,falsa,comprometida,respondable,perdoda,irresponsable,creido,fantasma,engreido,histerico,intensa,vaga,perdido,engreida,liberal,energia, perdida,creativa,respondable,espontanea,confianzudo,burlon,irraponsable,-,comprometido,bruto,creativo,carismatica,copaadisima,mandon,creido,perdida
,,,,,,,,,,,,,,,,,,,,,,,,,,,,,,,,,,,,,,,,,,,,,,,,,,,,,,,,,,
irrespetuoso,bueno,reservado,bueno,vago,tímido,creativo,desaparecido,hipereactivo,copado,exigente,artística,intensa,amable,energética,reservada,vaga,copada,copada,intensa,desaparecida,desaparecido,complejo,desaparecido,comprometida,responsable,ausente,timido,pesada, atenta,responsable,sociable,irresponsable,cómodo,desubicado,sobrebio,hormonal,chistoso,copada,creido,cerrada,responsable,timida/gentil,reservada,responsable,tímido,chupamedias,machista,inmaduro,comprometido,egocéntrico,buena persona,colgdo,,sensible, comprometifs,responsable,colgado,ausente
gracioso,deportista,amable,deportista,copado,deportista,artistico,gracioso,copado,copado,loca,copada,graciosa,problematica,copada,copada,graciosa,deportista,amable,mentirosa,fantasma,gracioso,gracioso,fantasma,creativa,cantante,fantasma,irresponsable,perdida,creativa,confiable,copada,copada,serio,copado,colagdo,desconfiado,gracioso,loca,negativo,colgado,exivicionista,copada,fantasma,copada,copado,responsable,copado,gracioso,copado,copado,copado,gracioso,copado,copada,graciosa,mala onda,gracioso,fantasma
alegre,comprometido,gracioso,timido,serio,fantasma,creativo,comprometido,hiperactivo,servicial,interesante,carismatica,vergonzosa,mandona,copada,copada,alegre,carismatica,servicial,colgada,graciosa,fantasma,creido,energico,atenta,creativa,alegre,fantasma,colgada,ingeniosa,copado,amorosa,fantasma,responsable,creido,confiable,servicial,comprometida,indecifrable,responsable,responsable,responsable,confiable,servicial,energica,responsable,predispuesta,enojon,fantasma,comprometido,irresponsable,amable,carismatico,creativo,copada,responsable,hiperactivo,fantasma,fantasma
Gracioso,deportivo,vago,copado,místico,cerrado,creativo,-,energético,copado,sensible,Inteligente,apagada,copada,graciosa,graciosa,creativa,copada,copada,copada,perdida,fantasma,deportista,fantasma,inteligente,creativo,copado,gracioso,histérica,loca buena,Leal,energético,graciosa,inteligente,copado,agrandadod,dormido,responsable,responsable,servicial,copada,creativa,responsable,copada,copada,confiable,responsable,copado,puntual,gracioso,calentón,sociable,impuntual,responsable,graciosa,deportista,inteligente,impuntual,copada
copado,copado,copado,copado,divertido,callado,ingenioso,atento,extrovertido,divertido,extrovertida,divertida,divertida,copada,copada,divertida,divertida,copada,copada,copada,divertida,divertido,atento,extrovertido,ingeniosa,creativa,fantasma,colgado,ordenada,creativa,colgado,ingenioso,fantasma,ordenado,copado,ingenioso,colgado,divertida,responsable,ordenado,copada,ordenada,copada,copada,agresiva,callado,responsable,responsable,puntual,divertido,atento,copado,responsable,ingenioso,divertida,responsable,colgado,calenton,fantasma
,,,,,,,,,,,,,,,,,,,,,,,,,,,,,,,,,,,,,,,,,,,,,,,,,,,,,,,,,,
,,,,,,,,,,,,,,,,,,,,,,,,,,,,,,,,,,,,,,,,,,,,,,,,,,,,,,,,,,
,,,,,,,,,,,,,,,,,,,,,,,,,,,,,,,,,,,,,,,,,,,,,,,,,,,,,,,,,,
,,,,,,,,,,,,,,,,,,,,,,,,,,,,,,,,,,,,,,,,,,,,,,,,,,,,,,,,,,
Gracioso,Futbol,Timidez,Chistoso,Caricatura,Silencio,Músico,Pensativo,Proyecta,Carisma,Cuestionar,stand up,Despistada,introvertida,resiste,calma,única,valerosa,concentración,quererse,determinación,sorprende,filosofía,trap,habla,artista,apoyo,calla,abrazos,artesana,colgado,cómica,despierta,bipolar,antipático,agrandado,risa,compañera,cerrada,estilo,relajada,investigar,cariñosa,ternura,compromiso,tenso,segura,entusiasta,bobear,arriesgado,habil,querido,llamativo,exhibicionista,agradable,amor,valioso,varia,reservada
poco colaboraador,callado,desconocido,oculto,poco ingenioso,cerrado,creativo/inmaduro,-,sociable,vago,exigente,entusiasta,energetica,antipatica,vaga,desmotivada,desconocida,reservada ,colaboradira,intensa,desaparecida,ausente,frio,ausente,colaboradora,ingeniosa,desinteresada,colgado,inmadura, creativa,colaborador,sociable,desaparecida,entusiasta, mal llevado,pesado,hotmonal,colgada,antipatica,soberbio,ccerrada,entusiasta,buena/sociable,ausente,responsable,tímido,caradura,inmaduro,machista,comprometido,egocéntrico,inmaduro,colgado,optimista,comprometida,comprometida,chupa medias,falta compromiso,colaboradora
machito,rápido,fantasma,callado,misterioso,serio,interesante,efusivo,alegre,compañero,altanera,alegre,introvertida,buena,celosa,enojona,fantasma,sinceera,intensa,impulsiva,ordenada,fantasma,decidido,-,comprometida,interesante,orgullosa,colgado,intensa,ingeniosa,inquieto,intensa,careta,careta,tonto,atento,perdido,buena,simpática,creído,colgada,sabia,amiga,perdida,comprometida,callado,divertida,cargoso,machito,inmaduro,superficial,copado,inquieto,interesante,divertida,insegura,creido,desorienta,copada
grande,copado?,antisocial,compañero,prejuzgador,buen actor,extrovertido ,:),vago,buen amigo pero no sabe escuchar,exagerada,baja autoestima,pesada,trata mal,no hace nada vaga,graciosa, graciosa,mi persona,buena persona,tonta,copada,no comprometido,distrae a los demas (un peso),turbina,se sabe abrir y escuchar,interesante,buenos consejos,callado,careta,imginativa,gracioso,intensa,falsa,falso,cornudo,comunicativo,careta, grciosa muy, rara, lo odio,manipulable  pero la amo,feminista,buena amiga asusente,pesada,la amo, fantasma,-,doble cara, machista,falso,creido,careta,-,egocentrico,hueca,agresiva,creido/autoestima,no comprometido,borracha